spiMemory.vcd
$date
	Thu Oct 18 18:32:46 2018
$end
$version
	Icarus Verilog
$end
$timescale
	1ps
$end
$scope module jkff1 $end
$var wire 1 ! j $end
$var wire 1 " k $end
$var wire 1 # trigger $end
$var reg 1 $ q $end
$upscope $end
$scope module mux2 $end
$var wire 1 % in0 $end
$var wire 1 & in1 $end
$var wire 1 ' sel $end
$var wire 1 ( out $end
$upscope $end
$scope module testSPIMemory $end
$var wire 1 ) miso_pin $end
$var reg 1 * clk $end
$var reg 1 + cs_pin $end
$var reg 1 , mosi_pin $end
$var reg 1 - sclk_pin $end
$scope module dut $end
$var wire 1 * clk $end
$var wire 1 + cs_pin $end
$var wire 1 , mosi_pin $end
$var wire 1 - sclk_pin $end
$var wire 8 . shiftreg_out [7:0] $end
$var wire 1 / serial_out $end
$var wire 1 0 rising_sclk $end
$var wire 1 1 rising_mosi $end
$var wire 1 2 rising_cs $end
$var wire 1 ) miso_pin $end
$var wire 1 3 falling_sclk $end
$var wire 1 4 falling_mosi $end
$var wire 1 5 falling_cs $end
$var wire 1 6 dff_out $end
$var wire 8 7 datamem_out [7:0] $end
$var wire 1 8 conditioned_sclk $end
$var wire 1 9 conditioned_mosi $end
$var wire 1 : conditioned_cs $end
$var wire 7 ; address [6:0] $end
$var wire 1 < SR_WE $end
$var wire 1 = MISO_BUFE $end
$var wire 1 > DM_WE $end
$var wire 1 ? ADDR_WE $end
$scope module addrlatch $end
$var wire 7 @ d [6:0] $end
$var wire 1 * trigger $end
$var wire 1 ? enable $end
$var reg 7 A q [6:0] $end
$upscope $end
$scope module cs_cond $end
$var wire 1 * clk $end
$var wire 1 + noisysignal $end
$var reg 1 : conditioned $end
$var reg 3 B counter [2:0] $end
$var reg 1 5 negativeedge $end
$var reg 1 2 positiveedge $end
$var reg 1 C synchronizer0 $end
$var reg 1 D synchronizer1 $end
$upscope $end
$scope module datamem $end
$var wire 7 E address [6:0] $end
$var wire 1 * clk $end
$var wire 1 > writeEnable $end
$var wire 8 F dataIn [7:0] $end
$var reg 8 G dataOut [7:0] $end
$upscope $end
$scope module fsm $end
$var wire 1 : conditioned_cs $end
$var wire 1 H shiftreg_out $end
$var wire 1 0 rising_sclk $end
$var reg 3 I addr_counter [2:0] $end
$var reg 1 ? addr_we $end
$var reg 1 > dm_we $end
$var reg 1 = miso_bufe $end
$var reg 3 J read_counter [2:0] $end
$var reg 1 < sr_we $end
$var reg 3 K state [2:0] $end
$var reg 3 L write_counter [2:0] $end
$upscope $end
$scope module miso_buf $end
$var wire 1 = enable $end
$var wire 1 ) b $end
$var wire 1 6 a $end
$upscope $end
$scope module miso_dff $end
$var wire 1 * trigger $end
$var wire 1 3 enable $end
$var wire 1 / d $end
$var reg 1 6 q $end
$upscope $end
$scope module mosi_cond $end
$var wire 1 * clk $end
$var wire 1 , noisysignal $end
$var reg 1 9 conditioned $end
$var reg 3 M counter [2:0] $end
$var reg 1 4 negativeedge $end
$var reg 1 1 positiveedge $end
$var reg 1 N synchronizer0 $end
$var reg 1 O synchronizer1 $end
$upscope $end
$scope module sclk_cond $end
$var wire 1 * clk $end
$var wire 1 - noisysignal $end
$var reg 1 8 conditioned $end
$var reg 3 P counter [2:0] $end
$var reg 1 3 negativeedge $end
$var reg 1 0 positiveedge $end
$var reg 1 Q synchronizer0 $end
$var reg 1 R synchronizer1 $end
$upscope $end
$scope module shiftreg $end
$var wire 1 * clk $end
$var wire 8 S parallelDataIn [7:0] $end
$var wire 1 < parallelLoad $end
$var wire 1 0 peripheralClkEdge $end
$var wire 1 9 serialDataIn $end
$var reg 8 T parallelDataOut [7:0] $end
$var reg 1 / serialDataOut $end
$var reg 8 U shiftregistermem [7:0] $end
$upscope $end
$upscope $end
$upscope $end
$enddefinitions $end
#0
$dumpvars
bx U
bx T
bx S
0R
0Q
b0 P
0O
0N
b0 M
b0 L
b0 K
b0 J
b0 I
xH
bx G
bx F
bx E
0D
0C
b0 B
bx A
bx @
0?
0>
0=
0<
bx ;
0:
09
08
bx 7
x6
05
04
03
02
01
00
x/
bx .
0-
0,
1+
0*
z)
z(
z'
z&
z%
x$
z#
z"
z!
$end
#10000
1C
1*
#20000
0*
#30000
1D
1*
#40000
0*
#50000
b1 B
1*
#60000
0*
#70000
b10 B
1*
#80000
0*
#90000
b11 B
1*
#100000
0*
#110000
12
1:
b0 B
1*
#120000
0*
#130000
02
1*
